cypher_main/cypher_wave.vcd
$date
	Thu Dec  7 16:52:59 2023
$end
$version
	Icarus Verilog
$end
$timescale
	1s
$end
$scope module cypher_tb $end
$var wire 240 ! out_encoder [239:0] $end
$var wire 240 " out_decoder [239:0] $end
$var reg 1 # clk $end
$var reg 1 $ enable_decoder $end
$var reg 1 % enable_encoder $end
$var reg 16 & key [15:0] $end
$var reg 240 ' msg [239:0] $end
$scope module decoder $end
$var wire 1 # clk $end
$var wire 1 $ enable $end
$var wire 16 ( key [15:0] $end
$var wire 240 ) out [239:0] $end
$var wire 16 * stream_msg [15:0] $end
$var wire 16 + stream_crypto_msg [15:0] $end
$var wire 240 , msg [239:0] $end
$var reg 240 - out_reg [239:0] $end
$var reg 240 . outaux_reg [239:0] $end
$scope module crypt $end
$var wire 1 # clk $end
$var wire 16 / key [15:0] $end
$var wire 16 0 out [15:0] $end
$var wire 16 1 msg [15:0] $end
$var reg 16 2 out_reg [15:0] $end
$upscope $end
$scope module shl $end
$var wire 1 # clk $end
$var wire 1 $ enable $end
$var wire 16 3 out [15:0] $end
$var wire 240 4 initial_msg [239:0] $end
$var reg 1 5 first $end
$var reg 16 6 out_reg [15:0] $end
$var reg 240 7 shift_reg [239:0] $end
$upscope $end
$upscope $end
$scope module encoder $end
$var wire 1 # clk $end
$var wire 1 % enable $end
$var wire 16 8 key [15:0] $end
$var wire 240 9 msg [239:0] $end
$var wire 240 : out [239:0] $end
$var wire 16 ; stream_msg [15:0] $end
$var wire 16 < stream_crypto_msg [15:0] $end
$var reg 240 = out_reg [239:0] $end
$var reg 240 > outaux_reg [239:0] $end
$scope module crypt $end
$var wire 1 # clk $end
$var wire 16 ? key [15:0] $end
$var wire 16 @ out [15:0] $end
$var wire 16 A msg [15:0] $end
$var reg 16 B out_reg [15:0] $end
$upscope $end
$scope module shl $end
$var wire 1 # clk $end
$var wire 1 % enable $end
$var wire 240 C initial_msg [239:0] $end
$var wire 16 D out [15:0] $end
$var reg 1 E first $end
$var reg 16 F out_reg [15:0] $end
$var reg 240 G shift_reg [239:0] $end
$upscope $end
$upscope $end
$upscope $end
$enddefinitions $end
#0
$dumpvars
bx G
bx F
1E
bx D
b10010000110010101101100011011000110111100100000010101110110111101110010011011000110010000100001001000000100000100100000011100110110010101100011011100100110010101110100001000000110110101100101011100110111001101100001011001110110010100100001 C
bx B
bx A
bx @
b100100011 ?
bx >
bx =
bx <
bx ;
bx :
b10010000110010101101100011011000110111100100000010101110110111101110010011011000110010000100001001000000100000100100000011100110110010101100011011100100110010101110100001000000110110101100101011100110111001101100001011001110110010100100001 9
b100100011 8
bx 7
bx 6
15
bx 4
bx 3
bx 2
bx 1
bx 0
b100100011 /
bx .
bx -
bx ,
bx +
bx *
bx )
b100100011 (
b10010000110010101101100011011000110111100100000010101110110111101110010011011000110010000100001001000000100000100100000011100110110010101100011011100100110010101110100001000000110110101100101011100110111001101100001011001110110010100100001 '
b100100011 &
1%
0$
0#
bx "
bx !
$end
#10
1#
#11
b100100001100101 ;
b100100001100101 A
b100100001100101 D
b100100001100101 F
#12
b11011000110110001101111001000000101011101101111011100100110110001100100001000010010000001000001001000000111001101100101011000110111001001100101011101000010000001101101011001010111001101110011011000010110011101100101001000010000000000000000 G
b100100101000110 <
b100100101000110 @
b100100101000110 B
0E
#13
bx0100100101000110 =
#20
0#
#30
1#
#31
b110110001101100 ;
b110110001101100 A
b110110001101100 D
b110110001101100 F
#32
b110110101001111 <
b110110101001111 @
b110110101001111 B
#33
bx01001001010001100110110101001111 =
#36
b11011110010000001010111011011110111001001101100011001000010000100100000010000010010000001110011011001010110001101110010011001010111010000100000011011010110010101110011011100110110000101100111011001010010000100000000000000000000000000000000 G
#40
0#
#50
1#
#51
b110111100100000 ;
b110111100100000 A
b110111100100000 D
b110111100100000 F
#52
b110111000000011 <
b110111000000011 @
b110111000000011 B
#53
bx010010010100011001101101010011110110111000000011 =
#56
b10101110110111101110010011011000110010000100001001000000100000100100000011100110110010101100011011100100110010101110100001000000110110101100101011100110111001101100001011001110110010100100001000000000000000000000000000000000000000000000000 G
#60
0#
#70
1#
#71
b101011101101111 ;
b101011101101111 A
b101011101101111 D
b101011101101111 F
#72
b101011001001100 <
b101011001001100 @
b101011001001100 B
#73
bx0100100101000110011011010100111101101110000000110101011001001100 =
#76
b11100100110110001100100001000010010000001000001001000000111001101100101011000110111001001100101011101000010000001101101011001010111001101110011011000010110011101100101001000010000000000000000000000000000000000000000000000000000000000000000 G
#80
0#
#90
1#
#91
b111001001101100 ;
b111001001101100 A
b111001001101100 D
b111001001101100 F
#92
b111001101001111 <
b111001101001111 @
b111001101001111 B
#93
bx01001001010001100110110101001111011011100000001101010110010011000111001101001111 =
#96
b11001000010000100100000010000010010000001110011011001010110001101110010011001010111010000100000011011010110010101110011011100110110000101100111011001010010000100000000000000000000000000000000000000000000000000000000000000000000000000000000 G
#100
0#
#110
1#
#111
b110010000100001 ;
b110010000100001 A
b110010000100001 D
b110010000100001 F
#112
b110010100000010 <
b110010100000010 @
b110010100000010 B
#113
bx010010010100011001101101010011110110111000000011010101100100110001110011010011110110010100000010 =
#116
b1000000100000100100000011100110110010101100011011100100110010101110100001000000110110101100101011100110111001101100001011001110110010100100001000000000000000000000000000000000000000000000000000000000000000000000000000000000000000000000000 G
#120
0#
#130
1#
#131
b10000001000001 ;
b10000001000001 A
b10000001000001 D
b10000001000001 F
#132
b10000101100010 <
b10000101100010 @
b10000101100010 B
#133
bx0100100101000110011011010100111101101110000000110101011001001100011100110100111101100101000000100010000101100010 =
#136
b1000000111001101100101011000110111001001100101011101000010000001101101011001010111001101110011011000010110011101100101001000010000000000000000000000000000000000000000000000000000000000000000000000000000000000000000000000000000000000000000 G
#140
0#
#150
1#
#151
b10000001110011 ;
b10000001110011 A
b10000001110011 D
b10000001110011 F
#152
b10000101010000 <
b10000101010000 @
b10000101010000 B
#153
bx01001001010001100110110101001111011011100000001101010110010011000111001101001111011001010000001000100001011000100010000101010000 =
#156
b11001010110001101110010011001010111010000100000011011010110010101110011011100110110000101100111011001010010000100000000000000000000000000000000000000000000000000000000000000000000000000000000000000000000000000000000000000000000000000000000 G
#160
0#
#170
1#
#171
b110010101100011 ;
b110010101100011 A
b110010101100011 D
b110010101100011 F
#172
b110010001000000 <
b110010001000000 @
b110010001000000 B
#173
bx010010010100011001101101010011110110111000000011010101100100110001110011010011110110010100000010001000010110001000100001010100000110010001000000 =
#176
b11100100110010101110100001000000110110101100101011100110111001101100001011001110110010100100001000000000000000000000000000000000000000000000000000000000000000000000000000000000000000000000000000000000000000000000000000000000000000000000000 G
#180
0#
#190
1#
#191
b111001001100101 ;
b111001001100101 A
b111001001100101 D
b111001001100101 F
#192
b111001101000110 <
b111001101000110 @
b111001101000110 B
#193
bx0100100101000110011011010100111101101110000000110101011001001100011100110100111101100101000000100010000101100010001000010101000001100100010000000111001101000110 =
#196
b11101000010000001101101011001010111001101110011011000010110011101100101001000010000000000000000000000000000000000000000000000000000000000000000000000000000000000000000000000000000000000000000000000000000000000000000000000000000000000000000 G
#200
0#
#210
1#
#211
b111010000100000 ;
b111010000100000 A
b111010000100000 D
b111010000100000 F
#212
b111010100000011 <
b111010100000011 @
b111010100000011 B
#213
bx01001001010001100110110101001111011011100000001101010110010011000111001101001111011001010000001000100001011000100010000101010000011001000100000001110011010001100111010100000011 =
#216
b11011010110010101110011011100110110000101100111011001010010000100000000000000000000000000000000000000000000000000000000000000000000000000000000000000000000000000000000000000000000000000000000000000000000000000000000000000000000000000000000 G
#220
0#
#230
1#
#231
b110110101100101 ;
b110110101100101 A
b110110101100101 D
b110110101100101 F
#232
b110110001000110 <
b110110001000110 @
b110110001000110 B
#233
bx010010010100011001101101010011110110111000000011010101100100110001110011010011110110010100000010001000010110001000100001010100000110010001000000011100110100011001110101000000110110110001000110 =
#236
b11100110111001101100001011001110110010100100001000000000000000000000000000000000000000000000000000000000000000000000000000000000000000000000000000000000000000000000000000000000000000000000000000000000000000000000000000000000000000000000000 G
#240
0#
#250
1#
#251
b111001101110011 ;
b111001101110011 A
b111001101110011 D
b111001101110011 F
#252
b111001001010000 <
b111001001010000 @
b111001001010000 B
#253
bx0100100101000110011011010100111101101110000000110101011001001100011100110100111101100101000000100010000101100010001000010101000001100100010000000111001101000110011101010000001101101100010001100111001001010000 =
#256
b11000010110011101100101001000010000000000000000000000000000000000000000000000000000000000000000000000000000000000000000000000000000000000000000000000000000000000000000000000000000000000000000000000000000000000000000000000000000000000000000 G
#260
0#
#270
1#
#271
b110000101100111 ;
b110000101100111 A
b110000101100111 D
b110000101100111 F
#272
b110000001000100 <
b110000001000100 @
b110000001000100 B
#273
bx01001001010001100110110101001111011011100000001101010110010011000111001101001111011001010000001000100001011000100010000101010000011001000100000001110011010001100111010100000011011011000100011001110010010100000110000001000100 =
#276
b11001010010000100000000000000000000000000000000000000000000000000000000000000000000000000000000000000000000000000000000000000000000000000000000000000000000000000000000000000000000000000000000000000000000000000000000000000000000000000000000 G
#280
0#
#290
1#
#291
b110010100100001 ;
b110010100100001 A
b110010100100001 D
b110010100100001 F
#292
b110010000000010 <
b110010000000010 @
b110010000000010 B
#293
b10010010100011001101101010011110110111000000011010101100100110001110011010011110110010100000010001000010110001000100001010100000110010001000000011100110100011001110101000000110110110001000110011100100101000001100000010001000110010000000010 =
#294
b10010010100011001101101010011110110111000000011010101100100110001110011010011110110010100000010001000010110001000100001010100000110010001000000011100110100011001110101000000110110110001000110011100100101000001100000010001000110010000000010 !
b10010010100011001101101010011110110111000000011010101100100110001110011010011110110010100000010001000010110001000100001010100000110010001000000011100110100011001110101000000110110110001000110011100100101000001100000010001000110010000000010 ,
b10010010100011001101101010011110110111000000011010101100100110001110011010011110110010100000010001000010110001000100001010100000110010001000000011100110100011001110101000000110110110001000110011100100101000001100000010001000110010000000010 4
b10010010100011001101101010011110110111000000011010101100100110001110011010011110110010100000010001000010110001000100001010100000110010001000000011100110100011001110101000000110110110001000110011100100101000001100000010001000110010000000010 :
b10010010100011001101101010011110110111000000011010101100100110001110011010011110110010100000010001000010110001000100001010100000110010001000000011100110100011001110101000000110110110001000110011100100101000001100000010001000110010000000010 >
#296
b0 G
#300
0#
#304
1$
#310
1#
#311
b100100101000110 *
b100100101000110 1
b100100101000110 3
b100100101000110 6
b0 ;
b0 A
b0 D
b0 F
#312
b11011010100111101101110000000110101011001001100011100110100111101100101000000100010000101100010001000010101000001100100010000000111001101000110011101010000001101101100010001100111001001010000011000000100010001100100000000100000000000000000 7
b100100001100101 +
b100100001100101 0
b100100001100101 2
b100100011 <
b100100011 @
b100100011 B
05
#313
bx0100100001100101 -
b11011010100111101101110000000110101011001001100011100110100111101100101000000100010000101100010001000010101000001100100010000000111001101000110011101010000001101101100010001100111001001010000011000000100010001100100000000100000000100100011 =
#320
0#
#330
1#
#331
b110110101001111 *
b110110101001111 1
b110110101001111 3
b110110101001111 6
#332
b110110001101100 +
b110110001101100 0
b110110001101100 2
#333
b11011100000001101010110010011000111001101001111011001010000001000100001011000100010000101010000011001000100000001110011010001100111010100000011011011000100011001110010010100000110000001000100011001000000001000000001001000110000000100100011 =
bx01001000011001010110110001101100 -
#336
b11011100000001101010110010011000111001101001111011001010000001000100001011000100010000101010000011001000100000001110011010001100111010100000011011011000100011001110010010100000110000001000100011001000000001000000000000000000000000000000000 7
#340
0#
#350
1#
#351
b110111000000011 *
b110111000000011 1
b110111000000011 3
b110111000000011 6
#352
b110111100100000 +
b110111100100000 0
b110111100100000 2
#353
bx010010000110010101101100011011000110111100100000 -
b10101100100110001110011010011110110010100000010001000010110001000100001010100000110010001000000011100110100011001110101000000110110110001000110011100100101000001100000010001000110010000000010000000010010001100000001001000110000000100100011 =
#356
b10101100100110001110011010011110110010100000010001000010110001000100001010100000110010001000000011100110100011001110101000000110110110001000110011100100101000001100000010001000110010000000010000000000000000000000000000000000000000000000000 7
#360
0#
#370
1#
#371
b101011001001100 *
b101011001001100 1
b101011001001100 3
b101011001001100 6
#372
b101011101101111 +
b101011101101111 0
b101011101101111 2
#373
b11100110100111101100101000000100010000101100010001000010101000001100100010000000111001101000110011101010000001101101100010001100111001001010000011000000100010001100100000000100000000100100011000000010010001100000001001000110000000100100011 =
bx0100100001100101011011000110110001101111001000000101011101101111 -
#376
b11100110100111101100101000000100010000101100010001000010101000001100100010000000111001101000110011101010000001101101100010001100111001001010000011000000100010001100100000000100000000000000000000000000000000000000000000000000000000000000000 7
#380
0#
#390
1#
#391
b111001101001111 *
b111001101001111 1
b111001101001111 3
b111001101001111 6
#392
b111001001101100 +
b111001001101100 0
b111001001101100 2
#393
bx01001000011001010110110001101100011011110010000001010111011011110111001001101100 -
b11001010000001000100001011000100010000101010000011001000100000001110011010001100111010100000011011011000100011001110010010100000110000001000100011001000000001000000001001000110000000100100011000000010010001100000001001000110000000100100011 =
#396
b11001010000001000100001011000100010000101010000011001000100000001110011010001100111010100000011011011000100011001110010010100000110000001000100011001000000001000000000000000000000000000000000000000000000000000000000000000000000000000000000 7
#400
0#
#410
1#
#411
b110010100000010 *
b110010100000010 1
b110010100000010 3
b110010100000010 6
#412
b110010000100001 +
b110010000100001 0
b110010000100001 2
#413
b1000010110001000100001010100000110010001000000011100110100011001110101000000110110110001000110011100100101000001100000010001000110010000000010000000010010001100000001001000110000000100100011000000010010001100000001001000110000000100100011 =
bx010010000110010101101100011011000110111100100000010101110110111101110010011011000110010000100001 -
#416
b1000010110001000100001010100000110010001000000011100110100011001110101000000110110110001000110011100100101000001100000010001000110010000000010000000000000000000000000000000000000000000000000000000000000000000000000000000000000000000000000 7
#420
0#
#430
1#
#431
b10000101100010 *
b10000101100010 1
b10000101100010 3
b10000101100010 6
#432
b10000001000001 +
b10000001000001 0
b10000001000001 2
#433
bx0100100001100101011011000110110001101111001000000101011101101111011100100110110001100100001000010010000001000001 -
b1000010101000001100100010000000111001101000110011101010000001101101100010001100111001001010000011000000100010001100100000000100000000100100011000000010010001100000001001000110000000100100011000000010010001100000001001000110000000100100011 =
#436
b1000010101000001100100010000000111001101000110011101010000001101101100010001100111001001010000011000000100010001100100000000100000000000000000000000000000000000000000000000000000000000000000000000000000000000000000000000000000000000000000 7
#440
0#
#450
1#
#451
b10000101010000 *
b10000101010000 1
b10000101010000 3
b10000101010000 6
#452
b10000001110011 +
b10000001110011 0
b10000001110011 2
#453
b11001000100000001110011010001100111010100000011011011000100011001110010010100000110000001000100011001000000001000000001001000110000000100100011000000010010001100000001001000110000000100100011000000010010001100000001001000110000000100100011 =
bx01001000011001010110110001101100011011110010000001010111011011110111001001101100011001000010000100100000010000010010000001110011 -
#456
b11001000100000001110011010001100111010100000011011011000100011001110010010100000110000001000100011001000000001000000000000000000000000000000000000000000000000000000000000000000000000000000000000000000000000000000000000000000000000000000000 7
#460
0#
#470
1#
#471
b110010001000000 *
b110010001000000 1
b110010001000000 3
b110010001000000 6
#472
b110010101100011 +
b110010101100011 0
b110010101100011 2
#473
bx010010000110010101101100011011000110111100100000010101110110111101110010011011000110010000100001001000000100000100100000011100110110010101100011 -
b11100110100011001110101000000110110110001000110011100100101000001100000010001000110010000000010000000010010001100000001001000110000000100100011000000010010001100000001001000110000000100100011000000010010001100000001001000110000000100100011 =
#476
b11100110100011001110101000000110110110001000110011100100101000001100000010001000110010000000010000000000000000000000000000000000000000000000000000000000000000000000000000000000000000000000000000000000000000000000000000000000000000000000000 7
#480
0#
#490
1#
#491
b111001101000110 *
b111001101000110 1
b111001101000110 3
b111001101000110 6
#492
b111001001100101 +
b111001001100101 0
b111001001100101 2
#493
b11101010000001101101100010001100111001001010000011000000100010001100100000000100000000100100011000000010010001100000001001000110000000100100011000000010010001100000001001000110000000100100011000000010010001100000001001000110000000100100011 =
bx0100100001100101011011000110110001101111001000000101011101101111011100100110110001100100001000010010000001000001001000000111001101100101011000110111001001100101 -
#496
b11101010000001101101100010001100111001001010000011000000100010001100100000000100000000000000000000000000000000000000000000000000000000000000000000000000000000000000000000000000000000000000000000000000000000000000000000000000000000000000000 7
#500
0#
#510
1#
#511
b111010100000011 *
b111010100000011 1
b111010100000011 3
b111010100000011 6
#512
b111010000100000 +
b111010000100000 0
b111010000100000 2
#513
bx01001000011001010110110001101100011011110010000001010111011011110111001001101100011001000010000100100000010000010010000001110011011001010110001101110010011001010111010000100000 -
b11011000100011001110010010100000110000001000100011001000000001000000001001000110000000100100011000000010010001100000001001000110000000100100011000000010010001100000001001000110000000100100011000000010010001100000001001000110000000100100011 =
#516
b11011000100011001110010010100000110000001000100011001000000001000000000000000000000000000000000000000000000000000000000000000000000000000000000000000000000000000000000000000000000000000000000000000000000000000000000000000000000000000000000 7
#520
0#
#530
1#
#531
b110110001000110 *
b110110001000110 1
b110110001000110 3
b110110001000110 6
#532
b110110101100101 +
b110110101100101 0
b110110101100101 2
#533
b11100100101000001100000010001000110010000000010000000010010001100000001001000110000000100100011000000010010001100000001001000110000000100100011000000010010001100000001001000110000000100100011000000010010001100000001001000110000000100100011 =
bx010010000110010101101100011011000110111100100000010101110110111101110010011011000110010000100001001000000100000100100000011100110110010101100011011100100110010101110100001000000110110101100101 -
#536
b11100100101000001100000010001000110010000000010000000000000000000000000000000000000000000000000000000000000000000000000000000000000000000000000000000000000000000000000000000000000000000000000000000000000000000000000000000000000000000000000 7
#540
0#
#550
1#
#551
b111001001010000 *
b111001001010000 1
b111001001010000 3
b111001001010000 6
#552
b111001101110011 +
b111001101110011 0
b111001101110011 2
#553
bx0100100001100101011011000110110001101111001000000101011101101111011100100110110001100100001000010010000001000001001000000111001101100101011000110111001001100101011101000010000001101101011001010111001101110011 -
b11000000100010001100100000000100000000100100011000000010010001100000001001000110000000100100011000000010010001100000001001000110000000100100011000000010010001100000001001000110000000100100011000000010010001100000001001000110000000100100011 =
#556
b11000000100010001100100000000100000000000000000000000000000000000000000000000000000000000000000000000000000000000000000000000000000000000000000000000000000000000000000000000000000000000000000000000000000000000000000000000000000000000000000 7
#560
0#
#570
1#
#571
b110000001000100 *
b110000001000100 1
b110000001000100 3
b110000001000100 6
#572
b110000101100111 +
b110000101100111 0
b110000101100111 2
#573
b11001000000001000000001001000110000000100100011000000010010001100000001001000110000000100100011000000010010001100000001001000110000000100100011000000010010001100000001001000110000000100100011000000010010001100000001001000110000000100100011 =
bx01001000011001010110110001101100011011110010000001010111011011110111001001101100011001000010000100100000010000010010000001110011011001010110001101110010011001010111010000100000011011010110010101110011011100110110000101100111 -
#576
b11001000000001000000000000000000000000000000000000000000000000000000000000000000000000000000000000000000000000000000000000000000000000000000000000000000000000000000000000000000000000000000000000000000000000000000000000000000000000000000000 7
#580
0#
#590
1#
#591
b110010000000010 *
b110010000000010 1
b110010000000010 3
b110010000000010 6
#592
b110010100100001 +
b110010100100001 0
b110010100100001 2
#593
b10010000110010101101100011011000110111100100000010101110110111101110010011011000110010000100001001000000100000100100000011100110110010101100011011100100110010101110100001000000110110101100101011100110111001101100001011001110110010100100001 -
b10010001100000001001000110000000100100011000000010010001100000001001000110000000100100011000000010010001100000001001000110000000100100011000000010010001100000001001000110000000100100011000000010010001100000001001000110000000100100011 =
#594
b10010000110010101101100011011000110111100100000010101110110111101110010011011000110010000100001001000000100000100100000011100110110010101100011011100100110010101110100001000000110110101100101011100110111001101100001011001110110010100100001 "
b10010000110010101101100011011000110111100100000010101110110111101110010011011000110010000100001001000000100000100100000011100110110010101100011011100100110010101110100001000000110110101100101011100110111001101100001011001110110010100100001 )
b10010000110010101101100011011000110111100100000010101110110111101110010011011000110010000100001001000000100000100100000011100110110010101100011011100100110010101110100001000000110110101100101011100110111001101100001011001110110010100100001 .
#596
b0 7
#600
0#
#610
1#
#611
b0 *
b0 1
b0 3
b0 6
#612
b100100011 +
b100100011 0
b100100011 2
#613
b11011000110110001101111001000000101011101101111011100100110110001100100001000010010000001000001001000000111001101100101011000110111001001100101011101000010000001101101011001010111001101110011011000010110011101100101001000010000000100100011 -
#620
0#
#630
1#
#633
b11011110010000001010111011011110111001001101100011001000010000100100000010000010010000001110011011001010110001101110010011001010111010000100000011011010110010101110011011100110110000101100111011001010010000100000001001000110000000100100011 -
#640
0#
#650
1#
#653
b10101110110111101110010011011000110010000100001001000000100000100100000011100110110010101100011011100100110010101110100001000000110110101100101011100110111001101100001011001110110010100100001000000010010001100000001001000110000000100100011 -
#660
0#
#670
1#
#673
b11100100110110001100100001000010010000001000001001000000111001101100101011000110111001001100101011101000010000001101101011001010111001101110011011000010110011101100101001000010000000100100011000000010010001100000001001000110000000100100011 -
#680
0#
#690
1#
#693
b11001000010000100100000010000010010000001110011011001010110001101110010011001010111010000100000011011010110010101110011011100110110000101100111011001010010000100000001001000110000000100100011000000010010001100000001001000110000000100100011 -
#700
0#
#710
1#
#713
b1000000100000100100000011100110110010101100011011100100110010101110100001000000110110101100101011100110111001101100001011001110110010100100001000000010010001100000001001000110000000100100011000000010010001100000001001000110000000100100011 -
#720
0#
#730
1#
#733
b1000000111001101100101011000110111001001100101011101000010000001101101011001010111001101110011011000010110011101100101001000010000000100100011000000010010001100000001001000110000000100100011000000010010001100000001001000110000000100100011 -
#740
0#
#750
1#
#753
b11001010110001101110010011001010111010000100000011011010110010101110011011100110110000101100111011001010010000100000001001000110000000100100011000000010010001100000001001000110000000100100011000000010010001100000001001000110000000100100011 -
#760
0#
#770
1#
#773
b11100100110010101110100001000000110110101100101011100110111001101100001011001110110010100100001000000010010001100000001001000110000000100100011000000010010001100000001001000110000000100100011000000010010001100000001001000110000000100100011 -
#780
0#
#790
1#
#793
b11101000010000001101101011001010111001101110011011000010110011101100101001000010000000100100011000000010010001100000001001000110000000100100011000000010010001100000001001000110000000100100011000000010010001100000001001000110000000100100011 -
#800
0#
#810
1#
#813
b11011010110010101110011011100110110000101100111011001010010000100000001001000110000000100100011000000010010001100000001001000110000000100100011000000010010001100000001001000110000000100100011000000010010001100000001001000110000000100100011 -
#820
0#
#830
1#
#833
b11100110111001101100001011001110110010100100001000000010010001100000001001000110000000100100011000000010010001100000001001000110000000100100011000000010010001100000001001000110000000100100011000000010010001100000001001000110000000100100011 -
#840
0#
#850
1#
#853
b11000010110011101100101001000010000000100100011000000010010001100000001001000110000000100100011000000010010001100000001001000110000000100100011000000010010001100000001001000110000000100100011000000010010001100000001001000110000000100100011 -
#860
0#
#870
1#
#873
b11001010010000100000001001000110000000100100011000000010010001100000001001000110000000100100011000000010010001100000001001000110000000100100011000000010010001100000001001000110000000100100011000000010010001100000001001000110000000100100011 -
#880
0#
#890
1#
#893
b10010001100000001001000110000000100100011000000010010001100000001001000110000000100100011000000010010001100000001001000110000000100100011000000010010001100000001001000110000000100100011000000010010001100000001001000110000000100100011 -
